EESchema Schematic File Version 4
EELAYER 30 0
EELAYER END
$Descr A4 11693 8268
encoding utf-8
Sheet 1 1
Title ""
Date ""
Rev ""
Comp ""
Comment1 ""
Comment2 ""
Comment3 ""
Comment4 ""
$EndDescr
$Comp
L Device:LED D1
U 1 1 5F77985C
P 5100 2400
F 0 "D1" H 5093 2617 50  0000 C CNN
F 1 "LED" H 5093 2526 50  0000 C CNN
F 2 "LED_SMD:LED_0805_2012Metric" H 5100 2400 50  0001 C CNN
F 3 "~" H 5100 2400 50  0001 C CNN
	1    5100 2400
	-1   0    0    -1  
$EndComp
$Comp
L Device:LED D2
U 1 1 5F779B88
P 5100 2850
F 0 "D2" H 5093 3067 50  0000 C CNN
F 1 "LED" H 5093 2976 50  0000 C CNN
F 2 "LED_SMD:LED_0805_2012Metric" H 5100 2850 50  0001 C CNN
F 3 "~" H 5100 2850 50  0001 C CNN
	1    5100 2850
	-1   0    0    -1  
$EndComp
$Comp
L Device:LED D3
U 1 1 5F779E73
P 5100 3350
F 0 "D3" H 5093 3567 50  0000 C CNN
F 1 "LED" H 5093 3476 50  0000 C CNN
F 2 "LED_SMD:LED_0805_2012Metric" H 5100 3350 50  0001 C CNN
F 3 "~" H 5100 3350 50  0001 C CNN
	1    5100 3350
	-1   0    0    -1  
$EndComp
$Comp
L Device:LED D6
U 1 1 5F77AE03
P 6050 3350
F 0 "D6" H 6043 3567 50  0000 C CNN
F 1 "LED" H 6043 3476 50  0000 C CNN
F 2 "LED_SMD:LED_0805_2012Metric" H 6050 3350 50  0001 C CNN
F 3 "~" H 6050 3350 50  0001 C CNN
	1    6050 3350
	-1   0    0    -1  
$EndComp
$Comp
L Device:LED D4
U 1 1 5F77B2CF
P 6050 2400
F 0 "D4" H 6043 2617 50  0000 C CNN
F 1 "LED" H 6043 2526 50  0000 C CNN
F 2 "LED_SMD:LED_0805_2012Metric" H 6050 2400 50  0001 C CNN
F 3 "~" H 6050 2400 50  0001 C CNN
	1    6050 2400
	-1   0    0    -1  
$EndComp
$Comp
L Device:LED D5
U 1 1 5F77B69B
P 6050 2900
F 0 "D5" H 6043 3117 50  0000 C CNN
F 1 "LED" H 6043 3026 50  0000 C CNN
F 2 "LED_SMD:LED_0805_2012Metric" H 6050 2900 50  0001 C CNN
F 3 "~" H 6050 2900 50  0001 C CNN
	1    6050 2900
	-1   0    0    -1  
$EndComp
$Comp
L Device:R R1
U 1 1 5F77C9AB
P 4800 2400
F 0 "R1" V 4593 2400 50  0000 C CNN
F 1 "R" V 4684 2400 50  0000 C CNN
F 2 "Resistor_SMD:R_0805_2012Metric" V 4730 2400 50  0001 C CNN
F 3 "~" H 4800 2400 50  0001 C CNN
	1    4800 2400
	0    1    1    0   
$EndComp
$Comp
L Device:R R2
U 1 1 5F77CF0B
P 4800 2850
F 0 "R2" V 4593 2850 50  0000 C CNN
F 1 "R" V 4684 2850 50  0000 C CNN
F 2 "Resistor_SMD:R_0805_2012Metric" V 4730 2850 50  0001 C CNN
F 3 "~" H 4800 2850 50  0001 C CNN
	1    4800 2850
	0    1    1    0   
$EndComp
$Comp
L Device:R R3
U 1 1 5F77D1E5
P 4800 3350
F 0 "R3" V 4593 3350 50  0000 C CNN
F 1 "R" V 4684 3350 50  0000 C CNN
F 2 "Resistor_SMD:R_0805_2012Metric" V 4730 3350 50  0001 C CNN
F 3 "~" H 4800 3350 50  0001 C CNN
	1    4800 3350
	0    1    1    0   
$EndComp
$Comp
L Device:R R6
U 1 1 5F77D525
P 5750 3350
F 0 "R6" V 5543 3350 50  0000 C CNN
F 1 "R" V 5634 3350 50  0000 C CNN
F 2 "Resistor_SMD:R_0805_2012Metric" V 5680 3350 50  0001 C CNN
F 3 "~" H 5750 3350 50  0001 C CNN
	1    5750 3350
	0    1    1    0   
$EndComp
$Comp
L Device:R R4
U 1 1 5F77D94C
P 5750 2400
F 0 "R4" V 5543 2400 50  0000 C CNN
F 1 "R" V 5634 2400 50  0000 C CNN
F 2 "Resistor_SMD:R_0805_2012Metric" V 5680 2400 50  0001 C CNN
F 3 "~" H 5750 2400 50  0001 C CNN
	1    5750 2400
	0    1    1    0   
$EndComp
$Comp
L Device:R R5
U 1 1 5F77DCDD
P 5750 2900
F 0 "R5" V 5543 2900 50  0000 C CNN
F 1 "R" V 5634 2900 50  0000 C CNN
F 2 "Resistor_SMD:R_0805_2012Metric" V 5680 2900 50  0001 C CNN
F 3 "~" H 5750 2900 50  0001 C CNN
	1    5750 2900
	0    1    1    0   
$EndComp
$Comp
L power:GND #PWR02
U 1 1 5F77E2B4
P 5950 4350
F 0 "#PWR02" H 5950 4100 50  0001 C CNN
F 1 "GND" H 5955 4177 50  0000 C CNN
F 2 "" H 5950 4350 50  0001 C CNN
F 3 "" H 5950 4350 50  0001 C CNN
	1    5950 4350
	1    0    0    -1  
$EndComp
$Comp
L power:PWR_FLAG #FLG01
U 1 1 5F77E642
P 5950 4350
F 0 "#FLG01" H 5950 4425 50  0001 C CNN
F 1 "PWR_FLAG" H 5950 4523 50  0000 C CNN
F 2 "" H 5950 4350 50  0001 C CNN
F 3 "~" H 5950 4350 50  0001 C CNN
	1    5950 4350
	1    0    0    -1  
$EndComp
Wire Wire Line
	5250 2400 5250 2850
Wire Wire Line
	5250 2850 5250 3350
Connection ~ 5250 2850
Wire Wire Line
	6250 2900 6200 2900
Wire Wire Line
	6250 3350 6200 3350
Text GLabel 4650 2400 0    50   Input ~ 0
1
Text GLabel 4650 2850 0    50   Input ~ 0
2
Text GLabel 4650 3350 0    50   Input ~ 0
3
Text GLabel 5600 2400 0    50   Input ~ 0
4
Text GLabel 5600 2900 0    50   Input ~ 0
5
Text GLabel 5600 3350 0    50   Input ~ 0
6
$Comp
L power:GND #PWR01
U 1 1 5F7827A7
P 4650 4200
F 0 "#PWR01" H 4650 3950 50  0001 C CNN
F 1 "GND" H 4655 4027 50  0000 C CNN
F 2 "" H 4650 4200 50  0001 C CNN
F 3 "" H 4650 4200 50  0001 C CNN
	1    4650 4200
	-1   0    0    1   
$EndComp
Text GLabel 5250 4200 1    50   Input ~ 0
1
Text GLabel 5150 4200 1    50   Input ~ 0
2
Text GLabel 5050 4200 1    50   Input ~ 0
3
Text GLabel 4950 4200 1    50   Input ~ 0
4
Text GLabel 4850 4200 1    50   Input ~ 0
5
Text GLabel 4750 4200 1    50   Input ~ 0
6
Wire Wire Line
	6250 2400 6250 2900
Wire Wire Line
	6250 2900 6250 3350
Connection ~ 6250 2900
Wire Notes Line
	4400 1950 6350 1950
Wire Notes Line
	6350 4700 4400 4700
Wire Notes Line
	4400 3750 6350 3750
Text Notes 4500 2050 0    50   ~ 0
Cuadratín LED SMD
Text Notes 4500 3900 0    50   ~ 0
Conector
Wire Notes Line
	5500 3750 5500 4700
$Comp
L power:GND #PWR03
U 1 1 5F7BE7D7
P 5250 3500
F 0 "#PWR03" H 5250 3250 50  0001 C CNN
F 1 "GND" H 5255 3327 50  0000 C CNN
F 2 "" H 5250 3500 50  0001 C CNN
F 3 "" H 5250 3500 50  0001 C CNN
	1    5250 3500
	1    0    0    -1  
$EndComp
$Comp
L power:GND #PWR04
U 1 1 5F7BEA9C
P 6250 3500
F 0 "#PWR04" H 6250 3250 50  0001 C CNN
F 1 "GND" H 6255 3327 50  0000 C CNN
F 2 "" H 6250 3500 50  0001 C CNN
F 3 "" H 6250 3500 50  0001 C CNN
	1    6250 3500
	1    0    0    -1  
$EndComp
Wire Wire Line
	6250 3500 6250 3350
Connection ~ 6250 3350
Wire Wire Line
	5250 3500 5250 3350
Connection ~ 5250 3350
Wire Notes Line
	6350 1950 6350 4700
Wire Notes Line
	4400 1950 4400 4700
Wire Wire Line
	6250 2400 6200 2400
$Comp
L Connector:Conn_01x07_Male J1
U 1 1 5F7B3D99
P 4950 4400
F 0 "J1" V 4877 4378 50  0000 C CNN
F 1 "con" V 4786 4378 50  0000 C CNN
F 2 "Connector_PinHeader_2.54mm:PinHeader_1x07_P2.54mm_Vertical" H 4950 4400 50  0001 C CNN
F 3 "~" H 4950 4400 50  0001 C CNN
	1    4950 4400
	0    1    -1   0   
$EndComp
$EndSCHEMATC
