%TF.GenerationSoftware,KiCad,Pcbnew,5.1.6*%
%TF.CreationDate,2020-10-04T22:37:55-05:00*%
%TF.ProjectId,braille_smd,62726169-6c6c-4655-9f73-6d642e6b6963,rev?*%
%TF.SameCoordinates,Original*%
%TF.FileFunction,Copper,L2,Bot*%
%TF.FilePolarity,Positive*%
%FSLAX46Y46*%
G04 Gerber Fmt 4.6, Leading zero omitted, Abs format (unit mm)*
G04 Created by KiCad (PCBNEW 5.1.6) date 2020-10-04 22:37:55*
%MOMM*%
%LPD*%
G01*
G04 APERTURE LIST*
%TA.AperFunction,Profile*%
%ADD10C,0.050000*%
%TD*%
%TA.AperFunction,ComponentPad*%
%ADD11R,1.700000X1.700000*%
%TD*%
%TA.AperFunction,ComponentPad*%
%ADD12O,1.700000X1.700000*%
%TD*%
%TA.AperFunction,ViaPad*%
%ADD13C,0.800000*%
%TD*%
%TA.AperFunction,Conductor*%
%ADD14C,0.254000*%
%TD*%
G04 APERTURE END LIST*
D10*
X130000000Y-100000000D02*
X130000000Y-70000000D01*
X150000000Y-100000000D02*
X130000000Y-100000000D01*
X150000000Y-70000000D02*
X150000000Y-100000000D01*
X130000000Y-70000000D02*
X150000000Y-70000000D01*
D11*
%TO.P,J1,1*%
%TO.N,1*%
X132400000Y-95800000D03*
D12*
%TO.P,J1,2*%
%TO.N,2*%
X134940000Y-95800000D03*
%TO.P,J1,3*%
%TO.N,3*%
X137480000Y-95800000D03*
%TO.P,J1,4*%
%TO.N,4*%
X140020000Y-95800000D03*
%TO.P,J1,5*%
%TO.N,5*%
X142560000Y-95800000D03*
%TO.P,J1,6*%
%TO.N,6*%
X145100000Y-95800000D03*
%TO.P,J1,7*%
%TO.N,GND*%
X147640000Y-95800000D03*
%TD*%
D13*
%TO.N,GND*%
X132500000Y-72500000D03*
X137500000Y-72500000D03*
X142500000Y-72500000D03*
X147500000Y-72500000D03*
X147500000Y-77500000D03*
X147500000Y-82500000D03*
X147500000Y-87500000D03*
X147500000Y-92500000D03*
%TO.N,1*%
X135900000Y-78300000D03*
%TO.N,2*%
X135900000Y-83075000D03*
%TO.N,4*%
X140000000Y-78775000D03*
%TO.N,5*%
X142600000Y-83100000D03*
%TD*%
D14*
%TO.N,GND*%
X147640000Y-95800000D02*
X147640000Y-95940000D01*
%TO.N,1*%
X132400000Y-81800000D02*
X132400000Y-95800000D01*
X135900000Y-78300000D02*
X132400000Y-81800000D01*
%TO.N,2*%
X134940000Y-84035000D02*
X134940000Y-95800000D01*
X135900000Y-83075000D02*
X134940000Y-84035000D01*
%TO.N,4*%
X140000000Y-95780000D02*
X140020000Y-95800000D01*
X140000000Y-78775000D02*
X140000000Y-95780000D01*
%TO.N,5*%
X142600000Y-95760000D02*
X142560000Y-95800000D01*
X142600000Y-83100000D02*
X142600000Y-95760000D01*
%TD*%
%TO.N,GND*%
G36*
X149594001Y-99594000D02*
G01*
X130406000Y-99594000D01*
X130406000Y-94950000D01*
X131167157Y-94950000D01*
X131167157Y-96650000D01*
X131174513Y-96724689D01*
X131196299Y-96796508D01*
X131231678Y-96862696D01*
X131279289Y-96920711D01*
X131337304Y-96968322D01*
X131403492Y-97003701D01*
X131475311Y-97025487D01*
X131550000Y-97032843D01*
X133250000Y-97032843D01*
X133324689Y-97025487D01*
X133396508Y-97003701D01*
X133462696Y-96968322D01*
X133520711Y-96920711D01*
X133568322Y-96862696D01*
X133603701Y-96796508D01*
X133625487Y-96724689D01*
X133632843Y-96650000D01*
X133632843Y-95678757D01*
X133709000Y-95678757D01*
X133709000Y-95921243D01*
X133756307Y-96159069D01*
X133849102Y-96383097D01*
X133983820Y-96584717D01*
X134155283Y-96756180D01*
X134356903Y-96890898D01*
X134580931Y-96983693D01*
X134818757Y-97031000D01*
X135061243Y-97031000D01*
X135299069Y-96983693D01*
X135523097Y-96890898D01*
X135724717Y-96756180D01*
X135896180Y-96584717D01*
X136030898Y-96383097D01*
X136123693Y-96159069D01*
X136171000Y-95921243D01*
X136171000Y-95678757D01*
X136249000Y-95678757D01*
X136249000Y-95921243D01*
X136296307Y-96159069D01*
X136389102Y-96383097D01*
X136523820Y-96584717D01*
X136695283Y-96756180D01*
X136896903Y-96890898D01*
X137120931Y-96983693D01*
X137358757Y-97031000D01*
X137601243Y-97031000D01*
X137839069Y-96983693D01*
X138063097Y-96890898D01*
X138264717Y-96756180D01*
X138436180Y-96584717D01*
X138570898Y-96383097D01*
X138663693Y-96159069D01*
X138711000Y-95921243D01*
X138711000Y-95678757D01*
X138789000Y-95678757D01*
X138789000Y-95921243D01*
X138836307Y-96159069D01*
X138929102Y-96383097D01*
X139063820Y-96584717D01*
X139235283Y-96756180D01*
X139436903Y-96890898D01*
X139660931Y-96983693D01*
X139898757Y-97031000D01*
X140141243Y-97031000D01*
X140379069Y-96983693D01*
X140603097Y-96890898D01*
X140804717Y-96756180D01*
X140976180Y-96584717D01*
X141110898Y-96383097D01*
X141203693Y-96159069D01*
X141251000Y-95921243D01*
X141251000Y-95678757D01*
X141329000Y-95678757D01*
X141329000Y-95921243D01*
X141376307Y-96159069D01*
X141469102Y-96383097D01*
X141603820Y-96584717D01*
X141775283Y-96756180D01*
X141976903Y-96890898D01*
X142200931Y-96983693D01*
X142438757Y-97031000D01*
X142681243Y-97031000D01*
X142919069Y-96983693D01*
X143143097Y-96890898D01*
X143344717Y-96756180D01*
X143516180Y-96584717D01*
X143650898Y-96383097D01*
X143743693Y-96159069D01*
X143791000Y-95921243D01*
X143791000Y-95678757D01*
X143869000Y-95678757D01*
X143869000Y-95921243D01*
X143916307Y-96159069D01*
X144009102Y-96383097D01*
X144143820Y-96584717D01*
X144315283Y-96756180D01*
X144516903Y-96890898D01*
X144740931Y-96983693D01*
X144978757Y-97031000D01*
X145221243Y-97031000D01*
X145459069Y-96983693D01*
X145683097Y-96890898D01*
X145884717Y-96756180D01*
X146056180Y-96584717D01*
X146190898Y-96383097D01*
X146238228Y-96268832D01*
X146295843Y-96431252D01*
X146444822Y-96681355D01*
X146639731Y-96897588D01*
X146873080Y-97071641D01*
X147135901Y-97196825D01*
X147283110Y-97241476D01*
X147513000Y-97120155D01*
X147513000Y-95927000D01*
X147767000Y-95927000D01*
X147767000Y-97120155D01*
X147996890Y-97241476D01*
X148144099Y-97196825D01*
X148406920Y-97071641D01*
X148640269Y-96897588D01*
X148835178Y-96681355D01*
X148984157Y-96431252D01*
X149081481Y-96156891D01*
X148960814Y-95927000D01*
X147767000Y-95927000D01*
X147513000Y-95927000D01*
X147493000Y-95927000D01*
X147493000Y-95673000D01*
X147513000Y-95673000D01*
X147513000Y-94479845D01*
X147767000Y-94479845D01*
X147767000Y-95673000D01*
X148960814Y-95673000D01*
X149081481Y-95443109D01*
X148984157Y-95168748D01*
X148835178Y-94918645D01*
X148640269Y-94702412D01*
X148406920Y-94528359D01*
X148144099Y-94403175D01*
X147996890Y-94358524D01*
X147767000Y-94479845D01*
X147513000Y-94479845D01*
X147283110Y-94358524D01*
X147135901Y-94403175D01*
X146873080Y-94528359D01*
X146639731Y-94702412D01*
X146444822Y-94918645D01*
X146295843Y-95168748D01*
X146238228Y-95331168D01*
X146190898Y-95216903D01*
X146056180Y-95015283D01*
X145884717Y-94843820D01*
X145683097Y-94709102D01*
X145459069Y-94616307D01*
X145221243Y-94569000D01*
X144978757Y-94569000D01*
X144740931Y-94616307D01*
X144516903Y-94709102D01*
X144315283Y-94843820D01*
X144143820Y-95015283D01*
X144009102Y-95216903D01*
X143916307Y-95440931D01*
X143869000Y-95678757D01*
X143791000Y-95678757D01*
X143743693Y-95440931D01*
X143650898Y-95216903D01*
X143516180Y-95015283D01*
X143344717Y-94843820D01*
X143143097Y-94709102D01*
X143108000Y-94694564D01*
X143108000Y-83696501D01*
X143206642Y-83597859D01*
X143292113Y-83469942D01*
X143350987Y-83327809D01*
X143381000Y-83176922D01*
X143381000Y-83023078D01*
X143350987Y-82872191D01*
X143292113Y-82730058D01*
X143206642Y-82602141D01*
X143097859Y-82493358D01*
X142969942Y-82407887D01*
X142827809Y-82349013D01*
X142676922Y-82319000D01*
X142523078Y-82319000D01*
X142372191Y-82349013D01*
X142230058Y-82407887D01*
X142102141Y-82493358D01*
X141993358Y-82602141D01*
X141907887Y-82730058D01*
X141849013Y-82872191D01*
X141819000Y-83023078D01*
X141819000Y-83176922D01*
X141849013Y-83327809D01*
X141907887Y-83469942D01*
X141993358Y-83597859D01*
X142092000Y-83696501D01*
X142092001Y-94661427D01*
X141976903Y-94709102D01*
X141775283Y-94843820D01*
X141603820Y-95015283D01*
X141469102Y-95216903D01*
X141376307Y-95440931D01*
X141329000Y-95678757D01*
X141251000Y-95678757D01*
X141203693Y-95440931D01*
X141110898Y-95216903D01*
X140976180Y-95015283D01*
X140804717Y-94843820D01*
X140603097Y-94709102D01*
X140508000Y-94669712D01*
X140508000Y-79371501D01*
X140606642Y-79272859D01*
X140692113Y-79144942D01*
X140750987Y-79002809D01*
X140781000Y-78851922D01*
X140781000Y-78698078D01*
X140750987Y-78547191D01*
X140692113Y-78405058D01*
X140606642Y-78277141D01*
X140497859Y-78168358D01*
X140369942Y-78082887D01*
X140227809Y-78024013D01*
X140076922Y-77994000D01*
X139923078Y-77994000D01*
X139772191Y-78024013D01*
X139630058Y-78082887D01*
X139502141Y-78168358D01*
X139393358Y-78277141D01*
X139307887Y-78405058D01*
X139249013Y-78547191D01*
X139219000Y-78698078D01*
X139219000Y-78851922D01*
X139249013Y-79002809D01*
X139307887Y-79144942D01*
X139393358Y-79272859D01*
X139492000Y-79371501D01*
X139492001Y-94686280D01*
X139436903Y-94709102D01*
X139235283Y-94843820D01*
X139063820Y-95015283D01*
X138929102Y-95216903D01*
X138836307Y-95440931D01*
X138789000Y-95678757D01*
X138711000Y-95678757D01*
X138663693Y-95440931D01*
X138570898Y-95216903D01*
X138436180Y-95015283D01*
X138264717Y-94843820D01*
X138063097Y-94709102D01*
X137839069Y-94616307D01*
X137601243Y-94569000D01*
X137358757Y-94569000D01*
X137120931Y-94616307D01*
X136896903Y-94709102D01*
X136695283Y-94843820D01*
X136523820Y-95015283D01*
X136389102Y-95216903D01*
X136296307Y-95440931D01*
X136249000Y-95678757D01*
X136171000Y-95678757D01*
X136123693Y-95440931D01*
X136030898Y-95216903D01*
X135896180Y-95015283D01*
X135724717Y-94843820D01*
X135523097Y-94709102D01*
X135448000Y-94677996D01*
X135448000Y-84245420D01*
X135837421Y-83856000D01*
X135976922Y-83856000D01*
X136127809Y-83825987D01*
X136269942Y-83767113D01*
X136397859Y-83681642D01*
X136506642Y-83572859D01*
X136592113Y-83444942D01*
X136650987Y-83302809D01*
X136681000Y-83151922D01*
X136681000Y-82998078D01*
X136650987Y-82847191D01*
X136592113Y-82705058D01*
X136506642Y-82577141D01*
X136397859Y-82468358D01*
X136269942Y-82382887D01*
X136127809Y-82324013D01*
X135976922Y-82294000D01*
X135823078Y-82294000D01*
X135672191Y-82324013D01*
X135530058Y-82382887D01*
X135402141Y-82468358D01*
X135293358Y-82577141D01*
X135207887Y-82705058D01*
X135149013Y-82847191D01*
X135119000Y-82998078D01*
X135119000Y-83137579D01*
X134598435Y-83658145D01*
X134579052Y-83674052D01*
X134515571Y-83751405D01*
X134468399Y-83839658D01*
X134439351Y-83935416D01*
X134432000Y-84010053D01*
X134429543Y-84035000D01*
X134432000Y-84059944D01*
X134432001Y-94677996D01*
X134356903Y-94709102D01*
X134155283Y-94843820D01*
X133983820Y-95015283D01*
X133849102Y-95216903D01*
X133756307Y-95440931D01*
X133709000Y-95678757D01*
X133632843Y-95678757D01*
X133632843Y-94950000D01*
X133625487Y-94875311D01*
X133603701Y-94803492D01*
X133568322Y-94737304D01*
X133520711Y-94679289D01*
X133462696Y-94631678D01*
X133396508Y-94596299D01*
X133324689Y-94574513D01*
X133250000Y-94567157D01*
X132908000Y-94567157D01*
X132908000Y-82010420D01*
X135837421Y-79081000D01*
X135976922Y-79081000D01*
X136127809Y-79050987D01*
X136269942Y-78992113D01*
X136397859Y-78906642D01*
X136506642Y-78797859D01*
X136592113Y-78669942D01*
X136650987Y-78527809D01*
X136681000Y-78376922D01*
X136681000Y-78223078D01*
X136650987Y-78072191D01*
X136592113Y-77930058D01*
X136506642Y-77802141D01*
X136397859Y-77693358D01*
X136269942Y-77607887D01*
X136127809Y-77549013D01*
X135976922Y-77519000D01*
X135823078Y-77519000D01*
X135672191Y-77549013D01*
X135530058Y-77607887D01*
X135402141Y-77693358D01*
X135293358Y-77802141D01*
X135207887Y-77930058D01*
X135149013Y-78072191D01*
X135119000Y-78223078D01*
X135119000Y-78362579D01*
X132058435Y-81423145D01*
X132039052Y-81439052D01*
X131975571Y-81516405D01*
X131928399Y-81604658D01*
X131899351Y-81700416D01*
X131892000Y-81775053D01*
X131889543Y-81800000D01*
X131892000Y-81824944D01*
X131892001Y-94567157D01*
X131550000Y-94567157D01*
X131475311Y-94574513D01*
X131403492Y-94596299D01*
X131337304Y-94631678D01*
X131279289Y-94679289D01*
X131231678Y-94737304D01*
X131196299Y-94803492D01*
X131174513Y-94875311D01*
X131167157Y-94950000D01*
X130406000Y-94950000D01*
X130406000Y-70406000D01*
X149594000Y-70406000D01*
X149594001Y-99594000D01*
G37*
X149594001Y-99594000D02*
X130406000Y-99594000D01*
X130406000Y-94950000D01*
X131167157Y-94950000D01*
X131167157Y-96650000D01*
X131174513Y-96724689D01*
X131196299Y-96796508D01*
X131231678Y-96862696D01*
X131279289Y-96920711D01*
X131337304Y-96968322D01*
X131403492Y-97003701D01*
X131475311Y-97025487D01*
X131550000Y-97032843D01*
X133250000Y-97032843D01*
X133324689Y-97025487D01*
X133396508Y-97003701D01*
X133462696Y-96968322D01*
X133520711Y-96920711D01*
X133568322Y-96862696D01*
X133603701Y-96796508D01*
X133625487Y-96724689D01*
X133632843Y-96650000D01*
X133632843Y-95678757D01*
X133709000Y-95678757D01*
X133709000Y-95921243D01*
X133756307Y-96159069D01*
X133849102Y-96383097D01*
X133983820Y-96584717D01*
X134155283Y-96756180D01*
X134356903Y-96890898D01*
X134580931Y-96983693D01*
X134818757Y-97031000D01*
X135061243Y-97031000D01*
X135299069Y-96983693D01*
X135523097Y-96890898D01*
X135724717Y-96756180D01*
X135896180Y-96584717D01*
X136030898Y-96383097D01*
X136123693Y-96159069D01*
X136171000Y-95921243D01*
X136171000Y-95678757D01*
X136249000Y-95678757D01*
X136249000Y-95921243D01*
X136296307Y-96159069D01*
X136389102Y-96383097D01*
X136523820Y-96584717D01*
X136695283Y-96756180D01*
X136896903Y-96890898D01*
X137120931Y-96983693D01*
X137358757Y-97031000D01*
X137601243Y-97031000D01*
X137839069Y-96983693D01*
X138063097Y-96890898D01*
X138264717Y-96756180D01*
X138436180Y-96584717D01*
X138570898Y-96383097D01*
X138663693Y-96159069D01*
X138711000Y-95921243D01*
X138711000Y-95678757D01*
X138789000Y-95678757D01*
X138789000Y-95921243D01*
X138836307Y-96159069D01*
X138929102Y-96383097D01*
X139063820Y-96584717D01*
X139235283Y-96756180D01*
X139436903Y-96890898D01*
X139660931Y-96983693D01*
X139898757Y-97031000D01*
X140141243Y-97031000D01*
X140379069Y-96983693D01*
X140603097Y-96890898D01*
X140804717Y-96756180D01*
X140976180Y-96584717D01*
X141110898Y-96383097D01*
X141203693Y-96159069D01*
X141251000Y-95921243D01*
X141251000Y-95678757D01*
X141329000Y-95678757D01*
X141329000Y-95921243D01*
X141376307Y-96159069D01*
X141469102Y-96383097D01*
X141603820Y-96584717D01*
X141775283Y-96756180D01*
X141976903Y-96890898D01*
X142200931Y-96983693D01*
X142438757Y-97031000D01*
X142681243Y-97031000D01*
X142919069Y-96983693D01*
X143143097Y-96890898D01*
X143344717Y-96756180D01*
X143516180Y-96584717D01*
X143650898Y-96383097D01*
X143743693Y-96159069D01*
X143791000Y-95921243D01*
X143791000Y-95678757D01*
X143869000Y-95678757D01*
X143869000Y-95921243D01*
X143916307Y-96159069D01*
X144009102Y-96383097D01*
X144143820Y-96584717D01*
X144315283Y-96756180D01*
X144516903Y-96890898D01*
X144740931Y-96983693D01*
X144978757Y-97031000D01*
X145221243Y-97031000D01*
X145459069Y-96983693D01*
X145683097Y-96890898D01*
X145884717Y-96756180D01*
X146056180Y-96584717D01*
X146190898Y-96383097D01*
X146238228Y-96268832D01*
X146295843Y-96431252D01*
X146444822Y-96681355D01*
X146639731Y-96897588D01*
X146873080Y-97071641D01*
X147135901Y-97196825D01*
X147283110Y-97241476D01*
X147513000Y-97120155D01*
X147513000Y-95927000D01*
X147767000Y-95927000D01*
X147767000Y-97120155D01*
X147996890Y-97241476D01*
X148144099Y-97196825D01*
X148406920Y-97071641D01*
X148640269Y-96897588D01*
X148835178Y-96681355D01*
X148984157Y-96431252D01*
X149081481Y-96156891D01*
X148960814Y-95927000D01*
X147767000Y-95927000D01*
X147513000Y-95927000D01*
X147493000Y-95927000D01*
X147493000Y-95673000D01*
X147513000Y-95673000D01*
X147513000Y-94479845D01*
X147767000Y-94479845D01*
X147767000Y-95673000D01*
X148960814Y-95673000D01*
X149081481Y-95443109D01*
X148984157Y-95168748D01*
X148835178Y-94918645D01*
X148640269Y-94702412D01*
X148406920Y-94528359D01*
X148144099Y-94403175D01*
X147996890Y-94358524D01*
X147767000Y-94479845D01*
X147513000Y-94479845D01*
X147283110Y-94358524D01*
X147135901Y-94403175D01*
X146873080Y-94528359D01*
X146639731Y-94702412D01*
X146444822Y-94918645D01*
X146295843Y-95168748D01*
X146238228Y-95331168D01*
X146190898Y-95216903D01*
X146056180Y-95015283D01*
X145884717Y-94843820D01*
X145683097Y-94709102D01*
X145459069Y-94616307D01*
X145221243Y-94569000D01*
X144978757Y-94569000D01*
X144740931Y-94616307D01*
X144516903Y-94709102D01*
X144315283Y-94843820D01*
X144143820Y-95015283D01*
X144009102Y-95216903D01*
X143916307Y-95440931D01*
X143869000Y-95678757D01*
X143791000Y-95678757D01*
X143743693Y-95440931D01*
X143650898Y-95216903D01*
X143516180Y-95015283D01*
X143344717Y-94843820D01*
X143143097Y-94709102D01*
X143108000Y-94694564D01*
X143108000Y-83696501D01*
X143206642Y-83597859D01*
X143292113Y-83469942D01*
X143350987Y-83327809D01*
X143381000Y-83176922D01*
X143381000Y-83023078D01*
X143350987Y-82872191D01*
X143292113Y-82730058D01*
X143206642Y-82602141D01*
X143097859Y-82493358D01*
X142969942Y-82407887D01*
X142827809Y-82349013D01*
X142676922Y-82319000D01*
X142523078Y-82319000D01*
X142372191Y-82349013D01*
X142230058Y-82407887D01*
X142102141Y-82493358D01*
X141993358Y-82602141D01*
X141907887Y-82730058D01*
X141849013Y-82872191D01*
X141819000Y-83023078D01*
X141819000Y-83176922D01*
X141849013Y-83327809D01*
X141907887Y-83469942D01*
X141993358Y-83597859D01*
X142092000Y-83696501D01*
X142092001Y-94661427D01*
X141976903Y-94709102D01*
X141775283Y-94843820D01*
X141603820Y-95015283D01*
X141469102Y-95216903D01*
X141376307Y-95440931D01*
X141329000Y-95678757D01*
X141251000Y-95678757D01*
X141203693Y-95440931D01*
X141110898Y-95216903D01*
X140976180Y-95015283D01*
X140804717Y-94843820D01*
X140603097Y-94709102D01*
X140508000Y-94669712D01*
X140508000Y-79371501D01*
X140606642Y-79272859D01*
X140692113Y-79144942D01*
X140750987Y-79002809D01*
X140781000Y-78851922D01*
X140781000Y-78698078D01*
X140750987Y-78547191D01*
X140692113Y-78405058D01*
X140606642Y-78277141D01*
X140497859Y-78168358D01*
X140369942Y-78082887D01*
X140227809Y-78024013D01*
X140076922Y-77994000D01*
X139923078Y-77994000D01*
X139772191Y-78024013D01*
X139630058Y-78082887D01*
X139502141Y-78168358D01*
X139393358Y-78277141D01*
X139307887Y-78405058D01*
X139249013Y-78547191D01*
X139219000Y-78698078D01*
X139219000Y-78851922D01*
X139249013Y-79002809D01*
X139307887Y-79144942D01*
X139393358Y-79272859D01*
X139492000Y-79371501D01*
X139492001Y-94686280D01*
X139436903Y-94709102D01*
X139235283Y-94843820D01*
X139063820Y-95015283D01*
X138929102Y-95216903D01*
X138836307Y-95440931D01*
X138789000Y-95678757D01*
X138711000Y-95678757D01*
X138663693Y-95440931D01*
X138570898Y-95216903D01*
X138436180Y-95015283D01*
X138264717Y-94843820D01*
X138063097Y-94709102D01*
X137839069Y-94616307D01*
X137601243Y-94569000D01*
X137358757Y-94569000D01*
X137120931Y-94616307D01*
X136896903Y-94709102D01*
X136695283Y-94843820D01*
X136523820Y-95015283D01*
X136389102Y-95216903D01*
X136296307Y-95440931D01*
X136249000Y-95678757D01*
X136171000Y-95678757D01*
X136123693Y-95440931D01*
X136030898Y-95216903D01*
X135896180Y-95015283D01*
X135724717Y-94843820D01*
X135523097Y-94709102D01*
X135448000Y-94677996D01*
X135448000Y-84245420D01*
X135837421Y-83856000D01*
X135976922Y-83856000D01*
X136127809Y-83825987D01*
X136269942Y-83767113D01*
X136397859Y-83681642D01*
X136506642Y-83572859D01*
X136592113Y-83444942D01*
X136650987Y-83302809D01*
X136681000Y-83151922D01*
X136681000Y-82998078D01*
X136650987Y-82847191D01*
X136592113Y-82705058D01*
X136506642Y-82577141D01*
X136397859Y-82468358D01*
X136269942Y-82382887D01*
X136127809Y-82324013D01*
X135976922Y-82294000D01*
X135823078Y-82294000D01*
X135672191Y-82324013D01*
X135530058Y-82382887D01*
X135402141Y-82468358D01*
X135293358Y-82577141D01*
X135207887Y-82705058D01*
X135149013Y-82847191D01*
X135119000Y-82998078D01*
X135119000Y-83137579D01*
X134598435Y-83658145D01*
X134579052Y-83674052D01*
X134515571Y-83751405D01*
X134468399Y-83839658D01*
X134439351Y-83935416D01*
X134432000Y-84010053D01*
X134429543Y-84035000D01*
X134432000Y-84059944D01*
X134432001Y-94677996D01*
X134356903Y-94709102D01*
X134155283Y-94843820D01*
X133983820Y-95015283D01*
X133849102Y-95216903D01*
X133756307Y-95440931D01*
X133709000Y-95678757D01*
X133632843Y-95678757D01*
X133632843Y-94950000D01*
X133625487Y-94875311D01*
X133603701Y-94803492D01*
X133568322Y-94737304D01*
X133520711Y-94679289D01*
X133462696Y-94631678D01*
X133396508Y-94596299D01*
X133324689Y-94574513D01*
X133250000Y-94567157D01*
X132908000Y-94567157D01*
X132908000Y-82010420D01*
X135837421Y-79081000D01*
X135976922Y-79081000D01*
X136127809Y-79050987D01*
X136269942Y-78992113D01*
X136397859Y-78906642D01*
X136506642Y-78797859D01*
X136592113Y-78669942D01*
X136650987Y-78527809D01*
X136681000Y-78376922D01*
X136681000Y-78223078D01*
X136650987Y-78072191D01*
X136592113Y-77930058D01*
X136506642Y-77802141D01*
X136397859Y-77693358D01*
X136269942Y-77607887D01*
X136127809Y-77549013D01*
X135976922Y-77519000D01*
X135823078Y-77519000D01*
X135672191Y-77549013D01*
X135530058Y-77607887D01*
X135402141Y-77693358D01*
X135293358Y-77802141D01*
X135207887Y-77930058D01*
X135149013Y-78072191D01*
X135119000Y-78223078D01*
X135119000Y-78362579D01*
X132058435Y-81423145D01*
X132039052Y-81439052D01*
X131975571Y-81516405D01*
X131928399Y-81604658D01*
X131899351Y-81700416D01*
X131892000Y-81775053D01*
X131889543Y-81800000D01*
X131892000Y-81824944D01*
X131892001Y-94567157D01*
X131550000Y-94567157D01*
X131475311Y-94574513D01*
X131403492Y-94596299D01*
X131337304Y-94631678D01*
X131279289Y-94679289D01*
X131231678Y-94737304D01*
X131196299Y-94803492D01*
X131174513Y-94875311D01*
X131167157Y-94950000D01*
X130406000Y-94950000D01*
X130406000Y-70406000D01*
X149594000Y-70406000D01*
X149594001Y-99594000D01*
%TD*%
M02*
