%TF.GenerationSoftware,KiCad,Pcbnew,5.1.6*%
%TF.CreationDate,2020-10-04T22:37:55-05:00*%
%TF.ProjectId,braille_smd,62726169-6c6c-4655-9f73-6d642e6b6963,rev?*%
%TF.SameCoordinates,Original*%
%TF.FileFunction,Other,Fab,Top*%
%FSLAX46Y46*%
G04 Gerber Fmt 4.6, Leading zero omitted, Abs format (unit mm)*
G04 Created by KiCad (PCBNEW 5.1.6) date 2020-10-04 22:37:55*
%MOMM*%
%LPD*%
G01*
G04 APERTURE LIST*
%TA.AperFunction,Profile*%
%ADD10C,0.050000*%
%TD*%
%ADD11C,0.100000*%
%ADD12C,0.150000*%
%ADD13C,0.080000*%
G04 APERTURE END LIST*
D10*
X130000000Y-100000000D02*
X130000000Y-70000000D01*
X150000000Y-100000000D02*
X130000000Y-100000000D01*
X150000000Y-70000000D02*
X150000000Y-100000000D01*
X130000000Y-70000000D02*
X150000000Y-70000000D01*
D11*
%TO.C,D1*%
X134662500Y-75062500D02*
X133462500Y-75062500D01*
X134662500Y-77062500D02*
X134662500Y-75062500D01*
X133762500Y-77062500D02*
X134662500Y-77062500D01*
X133462500Y-76762500D02*
X133762500Y-77062500D01*
X133462500Y-75062500D02*
X133462500Y-76762500D01*
%TO.C,D2*%
X133400000Y-79800000D02*
X133400000Y-81500000D01*
X133400000Y-81500000D02*
X133700000Y-81800000D01*
X133700000Y-81800000D02*
X134600000Y-81800000D01*
X134600000Y-81800000D02*
X134600000Y-79800000D01*
X134600000Y-79800000D02*
X133400000Y-79800000D01*
%TO.C,D3*%
X134600000Y-84637500D02*
X133400000Y-84637500D01*
X134600000Y-86637500D02*
X134600000Y-84637500D01*
X133700000Y-86637500D02*
X134600000Y-86637500D01*
X133400000Y-86337500D02*
X133700000Y-86637500D01*
X133400000Y-84637500D02*
X133400000Y-86337500D01*
%TO.C,D4*%
X145600000Y-75037500D02*
X144400000Y-75037500D01*
X145600000Y-77037500D02*
X145600000Y-75037500D01*
X144700000Y-77037500D02*
X145600000Y-77037500D01*
X144400000Y-76737500D02*
X144700000Y-77037500D01*
X144400000Y-75037500D02*
X144400000Y-76737500D01*
%TO.C,D5*%
X144400000Y-79837500D02*
X144400000Y-81537500D01*
X144400000Y-81537500D02*
X144700000Y-81837500D01*
X144700000Y-81837500D02*
X145600000Y-81837500D01*
X145600000Y-81837500D02*
X145600000Y-79837500D01*
X145600000Y-79837500D02*
X144400000Y-79837500D01*
%TO.C,D6*%
X144400000Y-84637500D02*
X144400000Y-86337500D01*
X144400000Y-86337500D02*
X144700000Y-86637500D01*
X144700000Y-86637500D02*
X145600000Y-86637500D01*
X145600000Y-86637500D02*
X145600000Y-84637500D01*
X145600000Y-84637500D02*
X144400000Y-84637500D01*
%TO.C,R1*%
X136600000Y-77062500D02*
X136600000Y-75062500D01*
X137800000Y-77062500D02*
X136600000Y-77062500D01*
X137800000Y-75062500D02*
X137800000Y-77062500D01*
X136600000Y-75062500D02*
X137800000Y-75062500D01*
%TO.C,R2*%
X136600000Y-79837500D02*
X137800000Y-79837500D01*
X137800000Y-79837500D02*
X137800000Y-81837500D01*
X137800000Y-81837500D02*
X136600000Y-81837500D01*
X136600000Y-81837500D02*
X136600000Y-79837500D01*
%TO.C,R3*%
X136700000Y-86637500D02*
X136700000Y-84637500D01*
X137900000Y-86637500D02*
X136700000Y-86637500D01*
X137900000Y-84637500D02*
X137900000Y-86637500D01*
X136700000Y-84637500D02*
X137900000Y-84637500D01*
%TO.C,R4*%
X141200000Y-77037500D02*
X141200000Y-75037500D01*
X142400000Y-77037500D02*
X141200000Y-77037500D01*
X142400000Y-75037500D02*
X142400000Y-77037500D01*
X141200000Y-75037500D02*
X142400000Y-75037500D01*
%TO.C,R5*%
X141200000Y-79837500D02*
X142400000Y-79837500D01*
X142400000Y-79837500D02*
X142400000Y-81837500D01*
X142400000Y-81837500D02*
X141200000Y-81837500D01*
X141200000Y-81837500D02*
X141200000Y-79837500D01*
%TO.C,R6*%
X141200000Y-84637500D02*
X142400000Y-84637500D01*
X142400000Y-84637500D02*
X142400000Y-86637500D01*
X142400000Y-86637500D02*
X141200000Y-86637500D01*
X141200000Y-86637500D02*
X141200000Y-84637500D01*
%TD*%
%TO.C,D1*%
D12*
X131057142Y-77552380D02*
X130580952Y-77552380D01*
X130580952Y-76552380D01*
X131390476Y-77028571D02*
X131723809Y-77028571D01*
X131866666Y-77552380D02*
X131390476Y-77552380D01*
X131390476Y-76552380D01*
X131866666Y-76552380D01*
X132295238Y-77552380D02*
X132295238Y-76552380D01*
X132533333Y-76552380D01*
X132676190Y-76600000D01*
X132771428Y-76695238D01*
X132819047Y-76790476D01*
X132866666Y-76980952D01*
X132866666Y-77123809D01*
X132819047Y-77314285D01*
X132771428Y-77409523D01*
X132676190Y-77504761D01*
X132533333Y-77552380D01*
X132295238Y-77552380D01*
D13*
X134288690Y-76431547D02*
X133788690Y-76431547D01*
X133788690Y-76312500D01*
X133812500Y-76241071D01*
X133860119Y-76193452D01*
X133907738Y-76169642D01*
X134002976Y-76145833D01*
X134074404Y-76145833D01*
X134169642Y-76169642D01*
X134217261Y-76193452D01*
X134264880Y-76241071D01*
X134288690Y-76312500D01*
X134288690Y-76431547D01*
X134288690Y-75669642D02*
X134288690Y-75955357D01*
X134288690Y-75812500D02*
X133788690Y-75812500D01*
X133860119Y-75860119D01*
X133907738Y-75907738D01*
X133931547Y-75955357D01*
%TO.C,D2*%
D12*
X131057142Y-82352380D02*
X130580952Y-82352380D01*
X130580952Y-81352380D01*
X131390476Y-81828571D02*
X131723809Y-81828571D01*
X131866666Y-82352380D02*
X131390476Y-82352380D01*
X131390476Y-81352380D01*
X131866666Y-81352380D01*
X132295238Y-82352380D02*
X132295238Y-81352380D01*
X132533333Y-81352380D01*
X132676190Y-81400000D01*
X132771428Y-81495238D01*
X132819047Y-81590476D01*
X132866666Y-81780952D01*
X132866666Y-81923809D01*
X132819047Y-82114285D01*
X132771428Y-82209523D01*
X132676190Y-82304761D01*
X132533333Y-82352380D01*
X132295238Y-82352380D01*
D13*
X134226190Y-81169047D02*
X133726190Y-81169047D01*
X133726190Y-81050000D01*
X133750000Y-80978571D01*
X133797619Y-80930952D01*
X133845238Y-80907142D01*
X133940476Y-80883333D01*
X134011904Y-80883333D01*
X134107142Y-80907142D01*
X134154761Y-80930952D01*
X134202380Y-80978571D01*
X134226190Y-81050000D01*
X134226190Y-81169047D01*
X133773809Y-80692857D02*
X133750000Y-80669047D01*
X133726190Y-80621428D01*
X133726190Y-80502380D01*
X133750000Y-80454761D01*
X133773809Y-80430952D01*
X133821428Y-80407142D01*
X133869047Y-80407142D01*
X133940476Y-80430952D01*
X134226190Y-80716666D01*
X134226190Y-80407142D01*
%TO.C,D3*%
D12*
X131057142Y-87252380D02*
X130580952Y-87252380D01*
X130580952Y-86252380D01*
X131390476Y-86728571D02*
X131723809Y-86728571D01*
X131866666Y-87252380D02*
X131390476Y-87252380D01*
X131390476Y-86252380D01*
X131866666Y-86252380D01*
X132295238Y-87252380D02*
X132295238Y-86252380D01*
X132533333Y-86252380D01*
X132676190Y-86300000D01*
X132771428Y-86395238D01*
X132819047Y-86490476D01*
X132866666Y-86680952D01*
X132866666Y-86823809D01*
X132819047Y-87014285D01*
X132771428Y-87109523D01*
X132676190Y-87204761D01*
X132533333Y-87252380D01*
X132295238Y-87252380D01*
D13*
X134266189Y-85951548D02*
X133766189Y-85951548D01*
X133766189Y-85832501D01*
X133789999Y-85761072D01*
X133837618Y-85713453D01*
X133885237Y-85689643D01*
X133980475Y-85665834D01*
X134051903Y-85665834D01*
X134147141Y-85689643D01*
X134194760Y-85713453D01*
X134242379Y-85761072D01*
X134266189Y-85832501D01*
X134266189Y-85951548D01*
X133766189Y-85499167D02*
X133766189Y-85189643D01*
X133956665Y-85356310D01*
X133956665Y-85284881D01*
X133980475Y-85237262D01*
X134004284Y-85213453D01*
X134051903Y-85189643D01*
X134170951Y-85189643D01*
X134218570Y-85213453D01*
X134242379Y-85237262D01*
X134266189Y-85284881D01*
X134266189Y-85427739D01*
X134242379Y-85475358D01*
X134218570Y-85499167D01*
%TO.C,D4*%
D12*
X146757142Y-77752380D02*
X146280952Y-77752380D01*
X146280952Y-76752380D01*
X147090476Y-77228571D02*
X147423809Y-77228571D01*
X147566666Y-77752380D02*
X147090476Y-77752380D01*
X147090476Y-76752380D01*
X147566666Y-76752380D01*
X147995238Y-77752380D02*
X147995238Y-76752380D01*
X148233333Y-76752380D01*
X148376190Y-76800000D01*
X148471428Y-76895238D01*
X148519047Y-76990476D01*
X148566666Y-77180952D01*
X148566666Y-77323809D01*
X148519047Y-77514285D01*
X148471428Y-77609523D01*
X148376190Y-77704761D01*
X148233333Y-77752380D01*
X147995238Y-77752380D01*
D13*
X145226190Y-76406547D02*
X144726190Y-76406547D01*
X144726190Y-76287500D01*
X144750000Y-76216071D01*
X144797619Y-76168452D01*
X144845238Y-76144642D01*
X144940476Y-76120833D01*
X145011904Y-76120833D01*
X145107142Y-76144642D01*
X145154761Y-76168452D01*
X145202380Y-76216071D01*
X145226190Y-76287500D01*
X145226190Y-76406547D01*
X144892857Y-75692261D02*
X145226190Y-75692261D01*
X144702380Y-75811309D02*
X145059523Y-75930357D01*
X145059523Y-75620833D01*
%TO.C,D5*%
D12*
X146757142Y-82452380D02*
X146280952Y-82452380D01*
X146280952Y-81452380D01*
X147090476Y-81928571D02*
X147423809Y-81928571D01*
X147566666Y-82452380D02*
X147090476Y-82452380D01*
X147090476Y-81452380D01*
X147566666Y-81452380D01*
X147995238Y-82452380D02*
X147995238Y-81452380D01*
X148233333Y-81452380D01*
X148376190Y-81500000D01*
X148471428Y-81595238D01*
X148519047Y-81690476D01*
X148566666Y-81880952D01*
X148566666Y-82023809D01*
X148519047Y-82214285D01*
X148471428Y-82309523D01*
X148376190Y-82404761D01*
X148233333Y-82452380D01*
X147995238Y-82452380D01*
D13*
X145226190Y-81206547D02*
X144726190Y-81206547D01*
X144726190Y-81087500D01*
X144750000Y-81016071D01*
X144797619Y-80968452D01*
X144845238Y-80944642D01*
X144940476Y-80920833D01*
X145011904Y-80920833D01*
X145107142Y-80944642D01*
X145154761Y-80968452D01*
X145202380Y-81016071D01*
X145226190Y-81087500D01*
X145226190Y-81206547D01*
X144726190Y-80468452D02*
X144726190Y-80706547D01*
X144964285Y-80730357D01*
X144940476Y-80706547D01*
X144916666Y-80658928D01*
X144916666Y-80539880D01*
X144940476Y-80492261D01*
X144964285Y-80468452D01*
X145011904Y-80444642D01*
X145130952Y-80444642D01*
X145178571Y-80468452D01*
X145202380Y-80492261D01*
X145226190Y-80539880D01*
X145226190Y-80658928D01*
X145202380Y-80706547D01*
X145178571Y-80730357D01*
%TO.C,D6*%
D12*
X146757142Y-87352380D02*
X146280952Y-87352380D01*
X146280952Y-86352380D01*
X147090476Y-86828571D02*
X147423809Y-86828571D01*
X147566666Y-87352380D02*
X147090476Y-87352380D01*
X147090476Y-86352380D01*
X147566666Y-86352380D01*
X147995238Y-87352380D02*
X147995238Y-86352380D01*
X148233333Y-86352380D01*
X148376190Y-86400000D01*
X148471428Y-86495238D01*
X148519047Y-86590476D01*
X148566666Y-86780952D01*
X148566666Y-86923809D01*
X148519047Y-87114285D01*
X148471428Y-87209523D01*
X148376190Y-87304761D01*
X148233333Y-87352380D01*
X147995238Y-87352380D01*
D13*
X145226190Y-86006547D02*
X144726190Y-86006547D01*
X144726190Y-85887500D01*
X144750000Y-85816071D01*
X144797619Y-85768452D01*
X144845238Y-85744642D01*
X144940476Y-85720833D01*
X145011904Y-85720833D01*
X145107142Y-85744642D01*
X145154761Y-85768452D01*
X145202380Y-85816071D01*
X145226190Y-85887500D01*
X145226190Y-86006547D01*
X144726190Y-85292261D02*
X144726190Y-85387500D01*
X144750000Y-85435119D01*
X144773809Y-85458928D01*
X144845238Y-85506547D01*
X144940476Y-85530357D01*
X145130952Y-85530357D01*
X145178571Y-85506547D01*
X145202380Y-85482738D01*
X145226190Y-85435119D01*
X145226190Y-85339880D01*
X145202380Y-85292261D01*
X145178571Y-85268452D01*
X145130952Y-85244642D01*
X145011904Y-85244642D01*
X144964285Y-85268452D01*
X144940476Y-85292261D01*
X144916666Y-85339880D01*
X144916666Y-85435119D01*
X144940476Y-85482738D01*
X144964285Y-85506547D01*
X145011904Y-85530357D01*
%TO.C,R1*%
D12*
X136009523Y-76652380D02*
X135676190Y-76176190D01*
X135438095Y-76652380D02*
X135438095Y-75652380D01*
X135819047Y-75652380D01*
X135914285Y-75700000D01*
X135961904Y-75747619D01*
X136009523Y-75842857D01*
X136009523Y-75985714D01*
X135961904Y-76080952D01*
X135914285Y-76128571D01*
X135819047Y-76176190D01*
X135438095Y-76176190D01*
D13*
X137426190Y-76145833D02*
X137188095Y-76312500D01*
X137426190Y-76431547D02*
X136926190Y-76431547D01*
X136926190Y-76241071D01*
X136950000Y-76193452D01*
X136973809Y-76169642D01*
X137021428Y-76145833D01*
X137092857Y-76145833D01*
X137140476Y-76169642D01*
X137164285Y-76193452D01*
X137188095Y-76241071D01*
X137188095Y-76431547D01*
X137426190Y-75669642D02*
X137426190Y-75955357D01*
X137426190Y-75812500D02*
X136926190Y-75812500D01*
X136997619Y-75860119D01*
X137045238Y-75907738D01*
X137069047Y-75955357D01*
%TO.C,R2*%
D12*
X135859523Y-81289880D02*
X135526190Y-80813690D01*
X135288095Y-81289880D02*
X135288095Y-80289880D01*
X135669047Y-80289880D01*
X135764285Y-80337500D01*
X135811904Y-80385119D01*
X135859523Y-80480357D01*
X135859523Y-80623214D01*
X135811904Y-80718452D01*
X135764285Y-80766071D01*
X135669047Y-80813690D01*
X135288095Y-80813690D01*
D13*
X137426190Y-80920833D02*
X137188095Y-81087500D01*
X137426190Y-81206547D02*
X136926190Y-81206547D01*
X136926190Y-81016071D01*
X136950000Y-80968452D01*
X136973809Y-80944642D01*
X137021428Y-80920833D01*
X137092857Y-80920833D01*
X137140476Y-80944642D01*
X137164285Y-80968452D01*
X137188095Y-81016071D01*
X137188095Y-81206547D01*
X136973809Y-80730357D02*
X136950000Y-80706547D01*
X136926190Y-80658928D01*
X136926190Y-80539880D01*
X136950000Y-80492261D01*
X136973809Y-80468452D01*
X137021428Y-80444642D01*
X137069047Y-80444642D01*
X137140476Y-80468452D01*
X137426190Y-80754166D01*
X137426190Y-80444642D01*
%TO.C,R3*%
D12*
X136102380Y-85327976D02*
X135626190Y-85661309D01*
X136102380Y-85899404D02*
X135102380Y-85899404D01*
X135102380Y-85518452D01*
X135150000Y-85423214D01*
X135197619Y-85375595D01*
X135292857Y-85327976D01*
X135435714Y-85327976D01*
X135530952Y-85375595D01*
X135578571Y-85423214D01*
X135626190Y-85518452D01*
X135626190Y-85899404D01*
D13*
X137526190Y-85720833D02*
X137288095Y-85887500D01*
X137526190Y-86006547D02*
X137026190Y-86006547D01*
X137026190Y-85816071D01*
X137050000Y-85768452D01*
X137073809Y-85744642D01*
X137121428Y-85720833D01*
X137192857Y-85720833D01*
X137240476Y-85744642D01*
X137264285Y-85768452D01*
X137288095Y-85816071D01*
X137288095Y-86006547D01*
X137026190Y-85554166D02*
X137026190Y-85244642D01*
X137216666Y-85411309D01*
X137216666Y-85339880D01*
X137240476Y-85292261D01*
X137264285Y-85268452D01*
X137311904Y-85244642D01*
X137430952Y-85244642D01*
X137478571Y-85268452D01*
X137502380Y-85292261D01*
X137526190Y-85339880D01*
X137526190Y-85482738D01*
X137502380Y-85530357D01*
X137478571Y-85554166D01*
%TO.C,R4*%
D12*
X140609523Y-76352380D02*
X140276190Y-75876190D01*
X140038095Y-76352380D02*
X140038095Y-75352380D01*
X140419047Y-75352380D01*
X140514285Y-75400000D01*
X140561904Y-75447619D01*
X140609523Y-75542857D01*
X140609523Y-75685714D01*
X140561904Y-75780952D01*
X140514285Y-75828571D01*
X140419047Y-75876190D01*
X140038095Y-75876190D01*
D13*
X141716666Y-76263690D02*
X141550000Y-76025595D01*
X141430952Y-76263690D02*
X141430952Y-75763690D01*
X141621428Y-75763690D01*
X141669047Y-75787500D01*
X141692857Y-75811309D01*
X141716666Y-75858928D01*
X141716666Y-75930357D01*
X141692857Y-75977976D01*
X141669047Y-76001785D01*
X141621428Y-76025595D01*
X141430952Y-76025595D01*
X142145238Y-75930357D02*
X142145238Y-76263690D01*
X142026190Y-75739880D02*
X141907142Y-76097023D01*
X142216666Y-76097023D01*
%TO.C,R5*%
D12*
X140459523Y-81289880D02*
X140126190Y-80813690D01*
X139888095Y-81289880D02*
X139888095Y-80289880D01*
X140269047Y-80289880D01*
X140364285Y-80337500D01*
X140411904Y-80385119D01*
X140459523Y-80480357D01*
X140459523Y-80623214D01*
X140411904Y-80718452D01*
X140364285Y-80766071D01*
X140269047Y-80813690D01*
X139888095Y-80813690D01*
D13*
X142026190Y-80920833D02*
X141788095Y-81087500D01*
X142026190Y-81206547D02*
X141526190Y-81206547D01*
X141526190Y-81016071D01*
X141550000Y-80968452D01*
X141573809Y-80944642D01*
X141621428Y-80920833D01*
X141692857Y-80920833D01*
X141740476Y-80944642D01*
X141764285Y-80968452D01*
X141788095Y-81016071D01*
X141788095Y-81206547D01*
X141526190Y-80468452D02*
X141526190Y-80706547D01*
X141764285Y-80730357D01*
X141740476Y-80706547D01*
X141716666Y-80658928D01*
X141716666Y-80539880D01*
X141740476Y-80492261D01*
X141764285Y-80468452D01*
X141811904Y-80444642D01*
X141930952Y-80444642D01*
X141978571Y-80468452D01*
X142002380Y-80492261D01*
X142026190Y-80539880D01*
X142026190Y-80658928D01*
X142002380Y-80706547D01*
X141978571Y-80730357D01*
%TO.C,R6*%
D12*
X140459523Y-86089880D02*
X140126190Y-85613690D01*
X139888095Y-86089880D02*
X139888095Y-85089880D01*
X140269047Y-85089880D01*
X140364285Y-85137500D01*
X140411904Y-85185119D01*
X140459523Y-85280357D01*
X140459523Y-85423214D01*
X140411904Y-85518452D01*
X140364285Y-85566071D01*
X140269047Y-85613690D01*
X139888095Y-85613690D01*
D13*
X142026190Y-85720833D02*
X141788095Y-85887500D01*
X142026190Y-86006547D02*
X141526190Y-86006547D01*
X141526190Y-85816071D01*
X141550000Y-85768452D01*
X141573809Y-85744642D01*
X141621428Y-85720833D01*
X141692857Y-85720833D01*
X141740476Y-85744642D01*
X141764285Y-85768452D01*
X141788095Y-85816071D01*
X141788095Y-86006547D01*
X141526190Y-85292261D02*
X141526190Y-85387500D01*
X141550000Y-85435119D01*
X141573809Y-85458928D01*
X141645238Y-85506547D01*
X141740476Y-85530357D01*
X141930952Y-85530357D01*
X141978571Y-85506547D01*
X142002380Y-85482738D01*
X142026190Y-85435119D01*
X142026190Y-85339880D01*
X142002380Y-85292261D01*
X141978571Y-85268452D01*
X141930952Y-85244642D01*
X141811904Y-85244642D01*
X141764285Y-85268452D01*
X141740476Y-85292261D01*
X141716666Y-85339880D01*
X141716666Y-85435119D01*
X141740476Y-85482738D01*
X141764285Y-85506547D01*
X141811904Y-85530357D01*
%TD*%
M02*
