%TF.GenerationSoftware,KiCad,Pcbnew,5.1.6*%
%TF.CreationDate,2020-10-04T22:37:55-05:00*%
%TF.ProjectId,braille_smd,62726169-6c6c-4655-9f73-6d642e6b6963,rev?*%
%TF.SameCoordinates,Original*%
%TF.FileFunction,Other,Fab,Bot*%
%FSLAX46Y46*%
G04 Gerber Fmt 4.6, Leading zero omitted, Abs format (unit mm)*
G04 Created by KiCad (PCBNEW 5.1.6) date 2020-10-04 22:37:55*
%MOMM*%
%LPD*%
G01*
G04 APERTURE LIST*
%TA.AperFunction,Profile*%
%ADD10C,0.050000*%
%TD*%
%ADD11C,0.100000*%
%ADD12C,0.150000*%
G04 APERTURE END LIST*
D10*
X130000000Y-100000000D02*
X130000000Y-70000000D01*
X150000000Y-100000000D02*
X130000000Y-100000000D01*
X150000000Y-70000000D02*
X150000000Y-100000000D01*
X130000000Y-70000000D02*
X150000000Y-70000000D01*
D11*
%TO.C,J1*%
X147960000Y-99840000D02*
X147960000Y-105840000D01*
X147320000Y-105840000D02*
X147960000Y-105840000D01*
X147320000Y-99840000D02*
X147320000Y-105840000D01*
X147960000Y-95480000D02*
X147960000Y-97300000D01*
X147320000Y-95480000D02*
X147960000Y-95480000D01*
X147320000Y-95480000D02*
X147320000Y-97300000D01*
X145420000Y-99840000D02*
X145420000Y-105840000D01*
X144780000Y-105840000D02*
X145420000Y-105840000D01*
X144780000Y-99840000D02*
X144780000Y-105840000D01*
X145420000Y-95480000D02*
X145420000Y-97300000D01*
X144780000Y-95480000D02*
X145420000Y-95480000D01*
X144780000Y-95480000D02*
X144780000Y-97300000D01*
X142880000Y-99840000D02*
X142880000Y-105840000D01*
X142240000Y-105840000D02*
X142880000Y-105840000D01*
X142240000Y-99840000D02*
X142240000Y-105840000D01*
X142880000Y-95480000D02*
X142880000Y-97300000D01*
X142240000Y-95480000D02*
X142880000Y-95480000D01*
X142240000Y-95480000D02*
X142240000Y-97300000D01*
X140340000Y-99840000D02*
X140340000Y-105840000D01*
X139700000Y-105840000D02*
X140340000Y-105840000D01*
X139700000Y-99840000D02*
X139700000Y-105840000D01*
X140340000Y-95480000D02*
X140340000Y-97300000D01*
X139700000Y-95480000D02*
X140340000Y-95480000D01*
X139700000Y-95480000D02*
X139700000Y-97300000D01*
X137800000Y-99840000D02*
X137800000Y-105840000D01*
X137160000Y-105840000D02*
X137800000Y-105840000D01*
X137160000Y-99840000D02*
X137160000Y-105840000D01*
X137800000Y-95480000D02*
X137800000Y-97300000D01*
X137160000Y-95480000D02*
X137800000Y-95480000D01*
X137160000Y-95480000D02*
X137160000Y-97300000D01*
X135260000Y-99840000D02*
X135260000Y-105840000D01*
X134620000Y-105840000D02*
X135260000Y-105840000D01*
X134620000Y-99840000D02*
X134620000Y-105840000D01*
X135260000Y-95480000D02*
X135260000Y-97300000D01*
X134620000Y-95480000D02*
X135260000Y-95480000D01*
X134620000Y-95480000D02*
X134620000Y-97300000D01*
X132720000Y-99840000D02*
X132720000Y-105840000D01*
X132080000Y-105840000D02*
X132720000Y-105840000D01*
X132080000Y-99840000D02*
X132080000Y-105840000D01*
X132720000Y-95480000D02*
X132720000Y-97300000D01*
X132080000Y-95480000D02*
X132720000Y-95480000D01*
X132080000Y-95480000D02*
X132080000Y-97300000D01*
X131765000Y-97300000D02*
X131130000Y-97935000D01*
X148910000Y-97300000D02*
X131765000Y-97300000D01*
X148910000Y-99840000D02*
X148910000Y-97300000D01*
X131130000Y-99840000D02*
X148910000Y-99840000D01*
X131130000Y-97935000D02*
X131130000Y-99840000D01*
%TD*%
%TO.C,J1*%
D12*
X147595238Y-91557142D02*
X147642857Y-91604761D01*
X147785714Y-91652380D01*
X147880952Y-91652380D01*
X148023809Y-91604761D01*
X148119047Y-91509523D01*
X148166666Y-91414285D01*
X148214285Y-91223809D01*
X148214285Y-91080952D01*
X148166666Y-90890476D01*
X148119047Y-90795238D01*
X148023809Y-90700000D01*
X147880952Y-90652380D01*
X147785714Y-90652380D01*
X147642857Y-90700000D01*
X147595238Y-90747619D01*
X147023809Y-91652380D02*
X147119047Y-91604761D01*
X147166666Y-91557142D01*
X147214285Y-91461904D01*
X147214285Y-91176190D01*
X147166666Y-91080952D01*
X147119047Y-91033333D01*
X147023809Y-90985714D01*
X146880952Y-90985714D01*
X146785714Y-91033333D01*
X146738095Y-91080952D01*
X146690476Y-91176190D01*
X146690476Y-91461904D01*
X146738095Y-91557142D01*
X146785714Y-91604761D01*
X146880952Y-91652380D01*
X147023809Y-91652380D01*
X146261904Y-90985714D02*
X146261904Y-91652380D01*
X146261904Y-91080952D02*
X146214285Y-91033333D01*
X146119047Y-90985714D01*
X145976190Y-90985714D01*
X145880952Y-91033333D01*
X145833333Y-91128571D01*
X145833333Y-91652380D01*
X140353333Y-98022380D02*
X140353333Y-98736666D01*
X140400952Y-98879523D01*
X140496190Y-98974761D01*
X140639047Y-99022380D01*
X140734285Y-99022380D01*
X139353333Y-99022380D02*
X139924761Y-99022380D01*
X139639047Y-99022380D02*
X139639047Y-98022380D01*
X139734285Y-98165238D01*
X139829523Y-98260476D01*
X139924761Y-98308095D01*
%TD*%
M02*
